// Jest Snapshot v1, https://goo.gl/fbAQLP

exports[`signupUser Saga should call the signUpUserError action if the response errors 1`] = `
Object {
  "@@redux-saga/IO": true,
  "CALL": Object {
    "args": Array [
      "/hr/applicants/register",
      Object {
        "email": "email@email.com",
        "password": "myPassword",
      },
    ],
    "context": null,
    "fn": [Function],
  },
}
`;

exports[`signupUser Saga should call the signUpUserError action if the response errors 2`] = `
Object {
  "@@redux-saga/IO": true,
  "CALL": Object {
    "args": Array [
      "Token goes here",
    ],
    "context": null,
    "fn": [Function],
  },
}
`;

exports[`signupUser Saga should call the signUpUserError action if the response errors 3`] = `
Object {
  "@@redux-saga/IO": true,
  "CALL": Object {
    "args": Array [
      "Thanks for signing up! Please check your email to get verified.",
    ],
    "context": null,
    "fn": [Function],
  },
}
`;

exports[`signupUser Saga should call the signUpUserError action if the response errors 4`] = `
Object {
  "@@redux-saga/IO": true,
  "CALL": Object {
    "args": Array [
      "{}",
      "Token goes here",
    ],
    "context": null,
    "fn": [Function],
  },
}
`;

exports[`signupUser Saga should dispatch the setUserAuth action if it requests the data successfully 1`] = `
Object {
  "@@redux-saga/IO": true,
  "CALL": Object {
    "args": Array [
      "/hr/applicants/register",
      Object {
        "email": "email@email.com",
        "password": "myPassword",
      },
    ],
    "context": null,
    "fn": [Function],
  },
}
`;

exports[`signupUser Saga should dispatch the setUserAuth action if it requests the data successfully 2`] = `
Object {
  "@@redux-saga/IO": true,
  "CALL": Object {
    "args": Array [
      "Token goes here",
    ],
    "context": null,
    "fn": [Function],
  },
}
`;

exports[`signupUser Saga should dispatch the setUserAuth action if it requests the data successfully 3`] = `
Object {
  "@@redux-saga/IO": true,
  "CALL": Object {
    "args": Array [
      "Thanks for signing up! Please check your email to get verified.",
    ],
    "context": null,
    "fn": [Function],
  },
}
`;

exports[`signupUser Saga should dispatch the setUserAuth action if it requests the data successfully 4`] = `
Object {
  "@@redux-saga/IO": true,
  "CALL": Object {
    "args": Array [
      "{}",
      "Token goes here",
    ],
    "context": null,
    "fn": [Function],
  },
}
`;

exports[`signupUser Saga should dispatch the signUpUserSuccess action if it requests the data successfully 1`] = `
Object {
  "@@redux-saga/IO": true,
  "CALL": Object {
    "args": Array [
      "/hr/applicants/register",
      Object {
        "email": "email@email.com",
        "password": "myPassword",
      },
    ],
    "context": null,
    "fn": [Function],
  },
}
`;

exports[`signupUser Saga should dispatch the signUpUserSuccess action if it requests the data successfully 2`] = `
Object {
  "@@redux-saga/IO": true,
  "CALL": Object {
    "args": Array [
      "Token goes here",
    ],
    "context": null,
    "fn": [Function],
  },
}
`;

exports[`signupUser Saga should dispatch the signUpUserSuccess action if it requests the data successfully 3`] = `
Object {
  "@@redux-saga/IO": true,
  "CALL": Object {
    "args": Array [
      "Thanks for signing up! Please check your email to get verified.",
    ],
    "context": null,
    "fn": [Function],
  },
}
`;

exports[`signupUser Saga should dispatch the signUpUserSuccess action if it requests the data successfully 4`] = `
Object {
  "@@redux-saga/IO": true,
  "CALL": Object {
    "args": Array [
      "{}",
      "Token goes here",
    ],
    "context": null,
    "fn": [Function],
  },
}
`;
