// Jest Snapshot v1, https://goo.gl/fbAQLP

exports[`fetchUserInfo Saga Application Letter catch should call the fetchUserInfoErr action if the response errors 1`] = `
Object {
  "@@redux-saga/IO": true,
  "CALL": Object {
    "args": Array [
      "/applicants/file",
      Object {
        "path": "PATH",
      },
    ],
    "context": null,
    "fn": [Function],
  },
}
`;

exports[`fetchUserInfo Saga Application Letter catch should call the fetchUserInfoErr action if the response errors 2`] = `
Object {
  "@@redux-saga/IO": true,
  "CALL": Object {
    "args": Array [
      "Something went wrong when fetching genders. Please try again.",
    ],
    "context": null,
    "fn": [Function],
  },
}
`;

exports[`fetchUserInfo Saga Application Letter should dispatch the attachmentsFetched action if it requests the data successfully 1`] = `
Object {
  "@@redux-saga/IO": true,
  "CALL": Object {
    "args": Array [
      "/applicants/file",
      Object {
        "path": "PATH",
      },
    ],
    "context": null,
    "fn": [Function],
  },
}
`;

exports[`fetchUserInfo Saga CV Reusme should dispatch the attachmentsFetched action if it requests the data successfully 1`] = `
Object {
  "@@redux-saga/IO": true,
  "CALL": Object {
    "args": Array [
      "/applicants/file",
      Object {
        "path": "PATH",
      },
    ],
    "context": null,
    "fn": [Function],
  },
}
`;
