// Jest Snapshot v1, https://goo.gl/fbAQLP

exports[`validateCode Saga catch should call the validateCodeErr action if the response errors 1`] = `
Object {
  "@@redux-saga/IO": true,
  "CALL": Object {
    "args": Array [
      "/hr/applicants/verifyToken",
      Object {
        "token": "CODE",
      },
    ],
    "context": null,
    "fn": [Function],
  },
}
`;

exports[`validateCode Saga catch should call the validateCodeErr action if the response errors 2`] = `
Object {
  "@@redux-saga/IO": true,
  "CALL": Object {
    "args": Array [
      "Token goes here",
    ],
    "context": null,
    "fn": [Function],
  },
}
`;

exports[`validateCode Saga catch should call the validateCodeErr action if the response errors 3`] = `
Object {
  "@@redux-saga/IO": true,
  "CALL": Object {
    "args": Array [
      "/hr/applicants/job_applications",
    ],
    "context": null,
    "fn": [Function],
  },
}
`;

exports[`validateCode Saga catch should call the validateCodeErr action if the response errors 4`] = `
Object {
  "@@redux-saga/IO": true,
  "CALL": Object {
    "args": Array [
      "{}",
      "Token goes here",
    ],
    "context": null,
    "fn": [Function],
  },
}
`;

exports[`validateCode Saga catch should call the validateCodeErr action if the response errors 5`] = `
Object {
  "@@redux-saga/IO": true,
  "CALL": Object {
    "args": Array [
      "Email verified! Welcome to Job Board!",
      5,
    ],
    "context": null,
    "fn": [Function],
  },
}
`;

exports[`validateCode Saga catch should call the validateCodeErr action if the response errors 6`] = `
Object {
  "@@redux-saga/IO": true,
  "CALL": Object {
    "args": Array [
      "Email verification expired or invalid.",
      5,
    ],
    "context": null,
    "fn": [Function],
  },
}
`;

exports[`validateCode Saga should dispatch the codeValidated action if it requests the data successfully 1`] = `
Object {
  "@@redux-saga/IO": true,
  "CALL": Object {
    "args": Array [
      "/hr/applicants/verifyToken",
      Object {
        "token": "CODE",
      },
    ],
    "context": null,
    "fn": [Function],
  },
}
`;

exports[`validateCode Saga should dispatch the codeValidated action if it requests the data successfully 2`] = `
Object {
  "@@redux-saga/IO": true,
  "CALL": Object {
    "args": Array [
      "Token goes here",
    ],
    "context": null,
    "fn": [Function],
  },
}
`;

exports[`validateCode Saga should dispatch the codeValidated action if it requests the data successfully 3`] = `
Object {
  "@@redux-saga/IO": true,
  "CALL": Object {
    "args": Array [
      "/hr/applicants/job_applications",
    ],
    "context": null,
    "fn": [Function],
  },
}
`;

exports[`validateCode Saga should dispatch the codeValidated action if it requests the data successfully 4`] = `
Object {
  "@@redux-saga/IO": true,
  "CALL": Object {
    "args": Array [
      "{}",
      "Token goes here",
    ],
    "context": null,
    "fn": [Function],
  },
}
`;

exports[`validateCode Saga should dispatch the codeValidated action if it requests the data successfully 5`] = `
Object {
  "@@redux-saga/IO": true,
  "CALL": Object {
    "args": Array [
      "Email verified! Welcome to Job Board!",
      5,
    ],
    "context": null,
    "fn": [Function],
  },
}
`;

exports[`validateCode Saga should dispatch the setUserAuth action if it requests the data successfully 1`] = `
Object {
  "@@redux-saga/IO": true,
  "CALL": Object {
    "args": Array [
      "/hr/applicants/verifyToken",
      Object {
        "token": "CODE",
      },
    ],
    "context": null,
    "fn": [Function],
  },
}
`;

exports[`validateCode Saga should dispatch the setUserAuth action if it requests the data successfully 2`] = `
Object {
  "@@redux-saga/IO": true,
  "CALL": Object {
    "args": Array [
      "Token goes here",
    ],
    "context": null,
    "fn": [Function],
  },
}
`;

exports[`validateCode Saga should dispatch the setUserAuth action if it requests the data successfully 3`] = `
Object {
  "@@redux-saga/IO": true,
  "CALL": Object {
    "args": Array [
      "/hr/applicants/job_applications",
    ],
    "context": null,
    "fn": [Function],
  },
}
`;

exports[`validateCode Saga should dispatch the setUserAuth action if it requests the data successfully 4`] = `
Object {
  "@@redux-saga/IO": true,
  "CALL": Object {
    "args": Array [
      "{}",
      "Token goes here",
    ],
    "context": null,
    "fn": [Function],
  },
}
`;

exports[`validateCode Saga should dispatch the setUserAuth action if it requests the data successfully 5`] = `
Object {
  "@@redux-saga/IO": true,
  "CALL": Object {
    "args": Array [
      "Email verified! Welcome to Job Board!",
      5,
    ],
    "context": null,
    "fn": [Function],
  },
}
`;
