// Jest Snapshot v1, https://goo.gl/fbAQLP

exports[`fetchApplications Saga catch should call the fetchApplicationsErr action if the response errors 1`] = `
Object {
  "@@redux-saga/IO": true,
  "CALL": Object {
    "args": Array [
      "/hr/applicants/job_applications",
    ],
    "context": null,
    "fn": [Function],
  },
}
`;

exports[`fetchApplications Saga catch should call the fetchApplicationsErr action if the response errors 2`] = `
Object {
  "@@redux-saga/IO": true,
  "CALL": Object {
    "args": Array [
      "/hr/applicants/divisions",
    ],
    "context": null,
    "fn": [Function],
  },
}
`;

exports[`fetchApplications Saga catch should call the fetchApplicationsErr action if the response errors 3`] = `
Object {
  "@@redux-saga/IO": true,
  "CALL": Object {
    "args": Array [
      "Something went wrong when fetching applications. Please try again.",
    ],
    "context": null,
    "fn": [Function],
  },
}
`;

exports[`fetchApplications Saga should dispatch the applicationsFetched action if it requests the data successfully 1`] = `
Object {
  "@@redux-saga/IO": true,
  "CALL": Object {
    "args": Array [
      "/hr/applicants/job_applications",
    ],
    "context": null,
    "fn": [Function],
  },
}
`;

exports[`fetchApplications Saga should dispatch the applicationsFetched action if it requests the data successfully 2`] = `
Object {
  "@@redux-saga/IO": true,
  "CALL": Object {
    "args": Array [
      "/hr/applicants/divisions",
    ],
    "context": null,
    "fn": [Function],
  },
}
`;
